(kicad_sch
	(version 20231120)
	(generator "eeschema")
	(generator_version "8.0")
	(uuid "08fe1d43-60d2-463e-995e-fbcce27e340c")
	(paper "A4")
	(lib_symbols
		(symbol "Arduino:Sparkfun_Pro_Micro"
			(pin_names
				(offset 1.016)
			)
			(exclude_from_sim no)
			(in_bom yes)
			(on_board yes)
			(property "Reference" "U"
				(at -8.89 21.59 0)
				(effects
					(font
						(size 1.524 1.524)
					)
				)
			)
			(property "Value" "Sparkfun_Pro_Micro"
				(at 0 19.05 0)
				(effects
					(font
						(size 1.524 1.524)
					)
				)
			)
			(property "Footprint" "Arduino:Sparkfun_Pro_Micro"
				(at 0 -16.51 0)
				(effects
					(font
						(size 1.524 1.524)
					)
					(hide yes)
				)
			)
			(property "Datasheet" "https://www.sparkfun.com/products/12640"
				(at 2.54 -26.67 0)
				(effects
					(font
						(size 1.524 1.524)
					)
					(hide yes)
				)
			)
			(property "Description" "Sparkfun Pro Micro"
				(at 0 0 0)
				(effects
					(font
						(size 1.27 1.27)
					)
					(hide yes)
				)
			)
			(property "ki_keywords" "Arduino Sparkfun pro micro microcontroller module USB"
				(at 0 0 0)
				(effects
					(font
						(size 1.27 1.27)
					)
					(hide yes)
				)
			)
			(symbol "Sparkfun_Pro_Micro_0_1"
				(rectangle
					(start -10.16 17.78)
					(end 10.16 -15.24)
					(stroke
						(width 0.254)
						(type solid)
					)
					(fill
						(type background)
					)
				)
			)
			(symbol "Sparkfun_Pro_Micro_1_1"
				(pin bidirectional line
					(at -15.24 15.24 0)
					(length 5.08)
					(name "D1/TX"
						(effects
							(font
								(size 1.27 1.27)
							)
						)
					)
					(number "1"
						(effects
							(font
								(size 1.27 1.27)
							)
						)
					)
				)
				(pin bidirectional line
					(at -15.24 -7.62 0)
					(length 5.08)
					(name "D7"
						(effects
							(font
								(size 1.27 1.27)
							)
						)
					)
					(number "10"
						(effects
							(font
								(size 1.27 1.27)
							)
						)
					)
				)
				(pin bidirectional line
					(at -15.24 -10.16 0)
					(length 5.08)
					(name "D8/A8"
						(effects
							(font
								(size 1.27 1.27)
							)
						)
					)
					(number "11"
						(effects
							(font
								(size 1.27 1.27)
							)
						)
					)
				)
				(pin bidirectional line
					(at -15.24 -12.7 0)
					(length 5.08)
					(name "~D9/A9"
						(effects
							(font
								(size 1.27 1.27)
							)
						)
					)
					(number "12"
						(effects
							(font
								(size 1.27 1.27)
							)
						)
					)
				)
				(pin bidirectional line
					(at 15.24 -12.7 180)
					(length 5.08)
					(name "~D10/A10"
						(effects
							(font
								(size 1.27 1.27)
							)
						)
					)
					(number "13"
						(effects
							(font
								(size 1.27 1.27)
							)
						)
					)
				)
				(pin bidirectional line
					(at 15.24 -10.16 180)
					(length 5.08)
					(name "D16"
						(effects
							(font
								(size 1.27 1.27)
							)
						)
					)
					(number "14"
						(effects
							(font
								(size 1.27 1.27)
							)
						)
					)
				)
				(pin bidirectional line
					(at 15.24 -7.62 180)
					(length 5.08)
					(name "D14"
						(effects
							(font
								(size 1.27 1.27)
							)
						)
					)
					(number "15"
						(effects
							(font
								(size 1.27 1.27)
							)
						)
					)
				)
				(pin bidirectional line
					(at 15.24 -5.08 180)
					(length 5.08)
					(name "D15"
						(effects
							(font
								(size 1.27 1.27)
							)
						)
					)
					(number "16"
						(effects
							(font
								(size 1.27 1.27)
							)
						)
					)
				)
				(pin bidirectional line
					(at 15.24 -2.54 180)
					(length 5.08)
					(name "D18/A0"
						(effects
							(font
								(size 1.27 1.27)
							)
						)
					)
					(number "17"
						(effects
							(font
								(size 1.27 1.27)
							)
						)
					)
				)
				(pin bidirectional line
					(at 15.24 0 180)
					(length 5.08)
					(name "D19/A1"
						(effects
							(font
								(size 1.27 1.27)
							)
						)
					)
					(number "18"
						(effects
							(font
								(size 1.27 1.27)
							)
						)
					)
				)
				(pin bidirectional line
					(at 15.24 2.54 180)
					(length 5.08)
					(name "D20/A2"
						(effects
							(font
								(size 1.27 1.27)
							)
						)
					)
					(number "19"
						(effects
							(font
								(size 1.27 1.27)
							)
						)
					)
				)
				(pin bidirectional line
					(at -15.24 12.7 0)
					(length 5.08)
					(name "D0/RX"
						(effects
							(font
								(size 1.27 1.27)
							)
						)
					)
					(number "2"
						(effects
							(font
								(size 1.27 1.27)
							)
						)
					)
				)
				(pin bidirectional line
					(at 15.24 5.08 180)
					(length 5.08)
					(name "D21/A3"
						(effects
							(font
								(size 1.27 1.27)
							)
						)
					)
					(number "20"
						(effects
							(font
								(size 1.27 1.27)
							)
						)
					)
				)
				(pin power_in line
					(at 15.24 7.62 180)
					(length 5.08)
					(name "VCC"
						(effects
							(font
								(size 1.27 1.27)
							)
						)
					)
					(number "21"
						(effects
							(font
								(size 1.27 1.27)
							)
						)
					)
				)
				(pin input line
					(at 15.24 10.16 180)
					(length 5.08)
					(name "RST"
						(effects
							(font
								(size 1.27 1.27)
							)
						)
					)
					(number "22"
						(effects
							(font
								(size 1.27 1.27)
							)
						)
					)
				)
				(pin power_in line
					(at 15.24 12.7 180)
					(length 5.08)
					(name "GND"
						(effects
							(font
								(size 1.27 1.27)
							)
						)
					)
					(number "23"
						(effects
							(font
								(size 1.27 1.27)
							)
						)
					)
				)
				(pin power_in line
					(at 15.24 15.24 180)
					(length 5.08)
					(name "RAW"
						(effects
							(font
								(size 1.27 1.27)
							)
						)
					)
					(number "24"
						(effects
							(font
								(size 1.27 1.27)
							)
						)
					)
				)
				(pin power_in line
					(at -15.24 10.16 0)
					(length 5.08)
					(name "GND"
						(effects
							(font
								(size 1.27 1.27)
							)
						)
					)
					(number "3"
						(effects
							(font
								(size 1.27 1.27)
							)
						)
					)
				)
				(pin power_in line
					(at -15.24 7.62 0)
					(length 5.08)
					(name "GND"
						(effects
							(font
								(size 1.27 1.27)
							)
						)
					)
					(number "4"
						(effects
							(font
								(size 1.27 1.27)
							)
						)
					)
				)
				(pin bidirectional line
					(at -15.24 5.08 0)
					(length 5.08)
					(name "D2"
						(effects
							(font
								(size 1.27 1.27)
							)
						)
					)
					(number "5"
						(effects
							(font
								(size 1.27 1.27)
							)
						)
					)
				)
				(pin bidirectional line
					(at -15.24 2.54 0)
					(length 5.08)
					(name "~D3"
						(effects
							(font
								(size 1.27 1.27)
							)
						)
					)
					(number "6"
						(effects
							(font
								(size 1.27 1.27)
							)
						)
					)
				)
				(pin bidirectional line
					(at -15.24 0 0)
					(length 5.08)
					(name "D4/A6"
						(effects
							(font
								(size 1.27 1.27)
							)
						)
					)
					(number "7"
						(effects
							(font
								(size 1.27 1.27)
							)
						)
					)
				)
				(pin bidirectional line
					(at -15.24 -2.54 0)
					(length 5.08)
					(name "~D5"
						(effects
							(font
								(size 1.27 1.27)
							)
						)
					)
					(number "8"
						(effects
							(font
								(size 1.27 1.27)
							)
						)
					)
				)
				(pin bidirectional line
					(at -15.24 -5.08 0)
					(length 5.08)
					(name "~D6/A7"
						(effects
							(font
								(size 1.27 1.27)
							)
						)
					)
					(number "9"
						(effects
							(font
								(size 1.27 1.27)
							)
						)
					)
				)
			)
		)
		(symbol "Connector:Barrel_Jack_Switch"
			(pin_names hide)
			(exclude_from_sim no)
			(in_bom yes)
			(on_board yes)
			(property "Reference" "J"
				(at 0 5.334 0)
				(effects
					(font
						(size 1.27 1.27)
					)
				)
			)
			(property "Value" "Barrel_Jack_Switch"
				(at 0 -5.08 0)
				(effects
					(font
						(size 1.27 1.27)
					)
				)
			)
			(property "Footprint" ""
				(at 1.27 -1.016 0)
				(effects
					(font
						(size 1.27 1.27)
					)
					(hide yes)
				)
			)
			(property "Datasheet" "~"
				(at 1.27 -1.016 0)
				(effects
					(font
						(size 1.27 1.27)
					)
					(hide yes)
				)
			)
			(property "Description" "DC Barrel Jack with an internal switch"
				(at 0 0 0)
				(effects
					(font
						(size 1.27 1.27)
					)
					(hide yes)
				)
			)
			(property "ki_keywords" "DC power barrel jack connector"
				(at 0 0 0)
				(effects
					(font
						(size 1.27 1.27)
					)
					(hide yes)
				)
			)
			(property "ki_fp_filters" "BarrelJack*"
				(at 0 0 0)
				(effects
					(font
						(size 1.27 1.27)
					)
					(hide yes)
				)
			)
			(symbol "Barrel_Jack_Switch_0_1"
				(rectangle
					(start -5.08 3.81)
					(end 5.08 -3.81)
					(stroke
						(width 0.254)
						(type default)
					)
					(fill
						(type background)
					)
				)
				(arc
					(start -3.302 3.175)
					(mid -3.9343 2.54)
					(end -3.302 1.905)
					(stroke
						(width 0.254)
						(type default)
					)
					(fill
						(type none)
					)
				)
				(arc
					(start -3.302 3.175)
					(mid -3.9343 2.54)
					(end -3.302 1.905)
					(stroke
						(width 0.254)
						(type default)
					)
					(fill
						(type outline)
					)
				)
				(polyline
					(pts
						(xy 1.27 -2.286) (xy 1.905 -1.651)
					)
					(stroke
						(width 0.254)
						(type default)
					)
					(fill
						(type none)
					)
				)
				(polyline
					(pts
						(xy 5.08 2.54) (xy 3.81 2.54)
					)
					(stroke
						(width 0.254)
						(type default)
					)
					(fill
						(type none)
					)
				)
				(polyline
					(pts
						(xy 5.08 0) (xy 1.27 0) (xy 1.27 -2.286) (xy 0.635 -1.651)
					)
					(stroke
						(width 0.254)
						(type default)
					)
					(fill
						(type none)
					)
				)
				(polyline
					(pts
						(xy -3.81 -2.54) (xy -2.54 -2.54) (xy -1.27 -1.27) (xy 0 -2.54) (xy 2.54 -2.54) (xy 5.08 -2.54)
					)
					(stroke
						(width 0.254)
						(type default)
					)
					(fill
						(type none)
					)
				)
				(rectangle
					(start 3.683 3.175)
					(end -3.302 1.905)
					(stroke
						(width 0.254)
						(type default)
					)
					(fill
						(type outline)
					)
				)
			)
			(symbol "Barrel_Jack_Switch_1_1"
				(pin passive line
					(at 7.62 2.54 180)
					(length 2.54)
					(name "~"
						(effects
							(font
								(size 1.27 1.27)
							)
						)
					)
					(number "1"
						(effects
							(font
								(size 1.27 1.27)
							)
						)
					)
				)
				(pin passive line
					(at 7.62 -2.54 180)
					(length 2.54)
					(name "~"
						(effects
							(font
								(size 1.27 1.27)
							)
						)
					)
					(number "2"
						(effects
							(font
								(size 1.27 1.27)
							)
						)
					)
				)
				(pin passive line
					(at 7.62 0 180)
					(length 2.54)
					(name "~"
						(effects
							(font
								(size 1.27 1.27)
							)
						)
					)
					(number "3"
						(effects
							(font
								(size 1.27 1.27)
							)
						)
					)
				)
			)
		)
		(symbol "Connector:Conn_01x02_Pin"
			(pin_names
				(offset 1.016) hide)
			(exclude_from_sim no)
			(in_bom yes)
			(on_board yes)
			(property "Reference" "J"
				(at 0 2.54 0)
				(effects
					(font
						(size 1.27 1.27)
					)
				)
			)
			(property "Value" "Conn_01x02_Pin"
				(at 0 -5.08 0)
				(effects
					(font
						(size 1.27 1.27)
					)
				)
			)
			(property "Footprint" ""
				(at 0 0 0)
				(effects
					(font
						(size 1.27 1.27)
					)
					(hide yes)
				)
			)
			(property "Datasheet" "~"
				(at 0 0 0)
				(effects
					(font
						(size 1.27 1.27)
					)
					(hide yes)
				)
			)
			(property "Description" "Generic connector, single row, 01x02, script generated"
				(at 0 0 0)
				(effects
					(font
						(size 1.27 1.27)
					)
					(hide yes)
				)
			)
			(property "ki_locked" ""
				(at 0 0 0)
				(effects
					(font
						(size 1.27 1.27)
					)
				)
			)
			(property "ki_keywords" "connector"
				(at 0 0 0)
				(effects
					(font
						(size 1.27 1.27)
					)
					(hide yes)
				)
			)
			(property "ki_fp_filters" "Connector*:*_1x??_*"
				(at 0 0 0)
				(effects
					(font
						(size 1.27 1.27)
					)
					(hide yes)
				)
			)
			(symbol "Conn_01x02_Pin_1_1"
				(polyline
					(pts
						(xy 1.27 -2.54) (xy 0.8636 -2.54)
					)
					(stroke
						(width 0.1524)
						(type default)
					)
					(fill
						(type none)
					)
				)
				(polyline
					(pts
						(xy 1.27 0) (xy 0.8636 0)
					)
					(stroke
						(width 0.1524)
						(type default)
					)
					(fill
						(type none)
					)
				)
				(rectangle
					(start 0.8636 -2.413)
					(end 0 -2.667)
					(stroke
						(width 0.1524)
						(type default)
					)
					(fill
						(type outline)
					)
				)
				(rectangle
					(start 0.8636 0.127)
					(end 0 -0.127)
					(stroke
						(width 0.1524)
						(type default)
					)
					(fill
						(type outline)
					)
				)
				(pin passive line
					(at 5.08 0 180)
					(length 3.81)
					(name "Pin_1"
						(effects
							(font
								(size 1.27 1.27)
							)
						)
					)
					(number "1"
						(effects
							(font
								(size 1.27 1.27)
							)
						)
					)
				)
				(pin passive line
					(at 5.08 -2.54 180)
					(length 3.81)
					(name "Pin_2"
						(effects
							(font
								(size 1.27 1.27)
							)
						)
					)
					(number "2"
						(effects
							(font
								(size 1.27 1.27)
							)
						)
					)
				)
			)
		)
		(symbol "Connector:Conn_01x03_Pin"
			(pin_names
				(offset 1.016) hide)
			(exclude_from_sim no)
			(in_bom yes)
			(on_board yes)
			(property "Reference" "J"
				(at 0 5.08 0)
				(effects
					(font
						(size 1.27 1.27)
					)
				)
			)
			(property "Value" "Conn_01x03_Pin"
				(at 0 -5.08 0)
				(effects
					(font
						(size 1.27 1.27)
					)
				)
			)
			(property "Footprint" ""
				(at 0 0 0)
				(effects
					(font
						(size 1.27 1.27)
					)
					(hide yes)
				)
			)
			(property "Datasheet" "~"
				(at 0 0 0)
				(effects
					(font
						(size 1.27 1.27)
					)
					(hide yes)
				)
			)
			(property "Description" "Generic connector, single row, 01x03, script generated"
				(at 0 0 0)
				(effects
					(font
						(size 1.27 1.27)
					)
					(hide yes)
				)
			)
			(property "ki_locked" ""
				(at 0 0 0)
				(effects
					(font
						(size 1.27 1.27)
					)
				)
			)
			(property "ki_keywords" "connector"
				(at 0 0 0)
				(effects
					(font
						(size 1.27 1.27)
					)
					(hide yes)
				)
			)
			(property "ki_fp_filters" "Connector*:*_1x??_*"
				(at 0 0 0)
				(effects
					(font
						(size 1.27 1.27)
					)
					(hide yes)
				)
			)
			(symbol "Conn_01x03_Pin_1_1"
				(polyline
					(pts
						(xy 1.27 -2.54) (xy 0.8636 -2.54)
					)
					(stroke
						(width 0.1524)
						(type default)
					)
					(fill
						(type none)
					)
				)
				(polyline
					(pts
						(xy 1.27 0) (xy 0.8636 0)
					)
					(stroke
						(width 0.1524)
						(type default)
					)
					(fill
						(type none)
					)
				)
				(polyline
					(pts
						(xy 1.27 2.54) (xy 0.8636 2.54)
					)
					(stroke
						(width 0.1524)
						(type default)
					)
					(fill
						(type none)
					)
				)
				(rectangle
					(start 0.8636 -2.413)
					(end 0 -2.667)
					(stroke
						(width 0.1524)
						(type default)
					)
					(fill
						(type outline)
					)
				)
				(rectangle
					(start 0.8636 0.127)
					(end 0 -0.127)
					(stroke
						(width 0.1524)
						(type default)
					)
					(fill
						(type outline)
					)
				)
				(rectangle
					(start 0.8636 2.667)
					(end 0 2.413)
					(stroke
						(width 0.1524)
						(type default)
					)
					(fill
						(type outline)
					)
				)
				(pin passive line
					(at 5.08 2.54 180)
					(length 3.81)
					(name "Pin_1"
						(effects
							(font
								(size 1.27 1.27)
							)
						)
					)
					(number "1"
						(effects
							(font
								(size 1.27 1.27)
							)
						)
					)
				)
				(pin passive line
					(at 5.08 0 180)
					(length 3.81)
					(name "Pin_2"
						(effects
							(font
								(size 1.27 1.27)
							)
						)
					)
					(number "2"
						(effects
							(font
								(size 1.27 1.27)
							)
						)
					)
				)
				(pin passive line
					(at 5.08 -2.54 180)
					(length 3.81)
					(name "Pin_3"
						(effects
							(font
								(size 1.27 1.27)
							)
						)
					)
					(number "3"
						(effects
							(font
								(size 1.27 1.27)
							)
						)
					)
				)
			)
		)
		(symbol "Connector:Conn_01x04_Pin"
			(pin_names
				(offset 1.016) hide)
			(exclude_from_sim no)
			(in_bom yes)
			(on_board yes)
			(property "Reference" "J"
				(at 0 5.08 0)
				(effects
					(font
						(size 1.27 1.27)
					)
				)
			)
			(property "Value" "Conn_01x04_Pin"
				(at 0 -7.62 0)
				(effects
					(font
						(size 1.27 1.27)
					)
				)
			)
			(property "Footprint" ""
				(at 0 0 0)
				(effects
					(font
						(size 1.27 1.27)
					)
					(hide yes)
				)
			)
			(property "Datasheet" "~"
				(at 0 0 0)
				(effects
					(font
						(size 1.27 1.27)
					)
					(hide yes)
				)
			)
			(property "Description" "Generic connector, single row, 01x04, script generated"
				(at 0 0 0)
				(effects
					(font
						(size 1.27 1.27)
					)
					(hide yes)
				)
			)
			(property "ki_locked" ""
				(at 0 0 0)
				(effects
					(font
						(size 1.27 1.27)
					)
				)
			)
			(property "ki_keywords" "connector"
				(at 0 0 0)
				(effects
					(font
						(size 1.27 1.27)
					)
					(hide yes)
				)
			)
			(property "ki_fp_filters" "Connector*:*_1x??_*"
				(at 0 0 0)
				(effects
					(font
						(size 1.27 1.27)
					)
					(hide yes)
				)
			)
			(symbol "Conn_01x04_Pin_1_1"
				(polyline
					(pts
						(xy 1.27 -5.08) (xy 0.8636 -5.08)
					)
					(stroke
						(width 0.1524)
						(type default)
					)
					(fill
						(type none)
					)
				)
				(polyline
					(pts
						(xy 1.27 -2.54) (xy 0.8636 -2.54)
					)
					(stroke
						(width 0.1524)
						(type default)
					)
					(fill
						(type none)
					)
				)
				(polyline
					(pts
						(xy 1.27 0) (xy 0.8636 0)
					)
					(stroke
						(width 0.1524)
						(type default)
					)
					(fill
						(type none)
					)
				)
				(polyline
					(pts
						(xy 1.27 2.54) (xy 0.8636 2.54)
					)
					(stroke
						(width 0.1524)
						(type default)
					)
					(fill
						(type none)
					)
				)
				(rectangle
					(start 0.8636 -4.953)
					(end 0 -5.207)
					(stroke
						(width 0.1524)
						(type default)
					)
					(fill
						(type outline)
					)
				)
				(rectangle
					(start 0.8636 -2.413)
					(end 0 -2.667)
					(stroke
						(width 0.1524)
						(type default)
					)
					(fill
						(type outline)
					)
				)
				(rectangle
					(start 0.8636 0.127)
					(end 0 -0.127)
					(stroke
						(width 0.1524)
						(type default)
					)
					(fill
						(type outline)
					)
				)
				(rectangle
					(start 0.8636 2.667)
					(end 0 2.413)
					(stroke
						(width 0.1524)
						(type default)
					)
					(fill
						(type outline)
					)
				)
				(pin passive line
					(at 5.08 2.54 180)
					(length 3.81)
					(name "Pin_1"
						(effects
							(font
								(size 1.27 1.27)
							)
						)
					)
					(number "1"
						(effects
							(font
								(size 1.27 1.27)
							)
						)
					)
				)
				(pin passive line
					(at 5.08 0 180)
					(length 3.81)
					(name "Pin_2"
						(effects
							(font
								(size 1.27 1.27)
							)
						)
					)
					(number "2"
						(effects
							(font
								(size 1.27 1.27)
							)
						)
					)
				)
				(pin passive line
					(at 5.08 -2.54 180)
					(length 3.81)
					(name "Pin_3"
						(effects
							(font
								(size 1.27 1.27)
							)
						)
					)
					(number "3"
						(effects
							(font
								(size 1.27 1.27)
							)
						)
					)
				)
				(pin passive line
					(at 5.08 -5.08 180)
					(length 3.81)
					(name "Pin_4"
						(effects
							(font
								(size 1.27 1.27)
							)
						)
					)
					(number "4"
						(effects
							(font
								(size 1.27 1.27)
							)
						)
					)
				)
			)
		)
		(symbol "Connector:Conn_01x06_Pin"
			(pin_names
				(offset 1.016) hide)
			(exclude_from_sim no)
			(in_bom yes)
			(on_board yes)
			(property "Reference" "J"
				(at 0 7.62 0)
				(effects
					(font
						(size 1.27 1.27)
					)
				)
			)
			(property "Value" "Conn_01x06_Pin"
				(at 0 -10.16 0)
				(effects
					(font
						(size 1.27 1.27)
					)
				)
			)
			(property "Footprint" ""
				(at 0 0 0)
				(effects
					(font
						(size 1.27 1.27)
					)
					(hide yes)
				)
			)
			(property "Datasheet" "~"
				(at 0 0 0)
				(effects
					(font
						(size 1.27 1.27)
					)
					(hide yes)
				)
			)
			(property "Description" "Generic connector, single row, 01x06, script generated"
				(at 0 0 0)
				(effects
					(font
						(size 1.27 1.27)
					)
					(hide yes)
				)
			)
			(property "ki_locked" ""
				(at 0 0 0)
				(effects
					(font
						(size 1.27 1.27)
					)
				)
			)
			(property "ki_keywords" "connector"
				(at 0 0 0)
				(effects
					(font
						(size 1.27 1.27)
					)
					(hide yes)
				)
			)
			(property "ki_fp_filters" "Connector*:*_1x??_*"
				(at 0 0 0)
				(effects
					(font
						(size 1.27 1.27)
					)
					(hide yes)
				)
			)
			(symbol "Conn_01x06_Pin_1_1"
				(polyline
					(pts
						(xy 1.27 -7.62) (xy 0.8636 -7.62)
					)
					(stroke
						(width 0.1524)
						(type default)
					)
					(fill
						(type none)
					)
				)
				(polyline
					(pts
						(xy 1.27 -5.08) (xy 0.8636 -5.08)
					)
					(stroke
						(width 0.1524)
						(type default)
					)
					(fill
						(type none)
					)
				)
				(polyline
					(pts
						(xy 1.27 -2.54) (xy 0.8636 -2.54)
					)
					(stroke
						(width 0.1524)
						(type default)
					)
					(fill
						(type none)
					)
				)
				(polyline
					(pts
						(xy 1.27 0) (xy 0.8636 0)
					)
					(stroke
						(width 0.1524)
						(type default)
					)
					(fill
						(type none)
					)
				)
				(polyline
					(pts
						(xy 1.27 2.54) (xy 0.8636 2.54)
					)
					(stroke
						(width 0.1524)
						(type default)
					)
					(fill
						(type none)
					)
				)
				(polyline
					(pts
						(xy 1.27 5.08) (xy 0.8636 5.08)
					)
					(stroke
						(width 0.1524)
						(type default)
					)
					(fill
						(type none)
					)
				)
				(rectangle
					(start 0.8636 -7.493)
					(end 0 -7.747)
					(stroke
						(width 0.1524)
						(type default)
					)
					(fill
						(type outline)
					)
				)
				(rectangle
					(start 0.8636 -4.953)
					(end 0 -5.207)
					(stroke
						(width 0.1524)
						(type default)
					)
					(fill
						(type outline)
					)
				)
				(rectangle
					(start 0.8636 -2.413)
					(end 0 -2.667)
					(stroke
						(width 0.1524)
						(type default)
					)
					(fill
						(type outline)
					)
				)
				(rectangle
					(start 0.8636 0.127)
					(end 0 -0.127)
					(stroke
						(width 0.1524)
						(type default)
					)
					(fill
						(type outline)
					)
				)
				(rectangle
					(start 0.8636 2.667)
					(end 0 2.413)
					(stroke
						(width 0.1524)
						(type default)
					)
					(fill
						(type outline)
					)
				)
				(rectangle
					(start 0.8636 5.207)
					(end 0 4.953)
					(stroke
						(width 0.1524)
						(type default)
					)
					(fill
						(type outline)
					)
				)
				(pin passive line
					(at 5.08 5.08 180)
					(length 3.81)
					(name "Pin_1"
						(effects
							(font
								(size 1.27 1.27)
							)
						)
					)
					(number "1"
						(effects
							(font
								(size 1.27 1.27)
							)
						)
					)
				)
				(pin passive line
					(at 5.08 2.54 180)
					(length 3.81)
					(name "Pin_2"
						(effects
							(font
								(size 1.27 1.27)
							)
						)
					)
					(number "2"
						(effects
							(font
								(size 1.27 1.27)
							)
						)
					)
				)
				(pin passive line
					(at 5.08 0 180)
					(length 3.81)
					(name "Pin_3"
						(effects
							(font
								(size 1.27 1.27)
							)
						)
					)
					(number "3"
						(effects
							(font
								(size 1.27 1.27)
							)
						)
					)
				)
				(pin passive line
					(at 5.08 -2.54 180)
					(length 3.81)
					(name "Pin_4"
						(effects
							(font
								(size 1.27 1.27)
							)
						)
					)
					(number "4"
						(effects
							(font
								(size 1.27 1.27)
							)
						)
					)
				)
				(pin passive line
					(at 5.08 -5.08 180)
					(length 3.81)
					(name "Pin_5"
						(effects
							(font
								(size 1.27 1.27)
							)
						)
					)
					(number "5"
						(effects
							(font
								(size 1.27 1.27)
							)
						)
					)
				)
				(pin passive line
					(at 5.08 -7.62 180)
					(length 3.81)
					(name "Pin_6"
						(effects
							(font
								(size 1.27 1.27)
							)
						)
					)
					(number "6"
						(effects
							(font
								(size 1.27 1.27)
							)
						)
					)
				)
			)
		)
		(symbol "Device:R"
			(pin_numbers hide)
			(pin_names
				(offset 0)
			)
			(exclude_from_sim no)
			(in_bom yes)
			(on_board yes)
			(property "Reference" "R"
				(at 2.032 0 90)
				(effects
					(font
						(size 1.27 1.27)
					)
				)
			)
			(property "Value" "R"
				(at 0 0 90)
				(effects
					(font
						(size 1.27 1.27)
					)
				)
			)
			(property "Footprint" ""
				(at -1.778 0 90)
				(effects
					(font
						(size 1.27 1.27)
					)
					(hide yes)
				)
			)
			(property "Datasheet" "~"
				(at 0 0 0)
				(effects
					(font
						(size 1.27 1.27)
					)
					(hide yes)
				)
			)
			(property "Description" "Resistor"
				(at 0 0 0)
				(effects
					(font
						(size 1.27 1.27)
					)
					(hide yes)
				)
			)
			(property "ki_keywords" "R res resistor"
				(at 0 0 0)
				(effects
					(font
						(size 1.27 1.27)
					)
					(hide yes)
				)
			)
			(property "ki_fp_filters" "R_*"
				(at 0 0 0)
				(effects
					(font
						(size 1.27 1.27)
					)
					(hide yes)
				)
			)
			(symbol "R_0_1"
				(rectangle
					(start -1.016 -2.54)
					(end 1.016 2.54)
					(stroke
						(width 0.254)
						(type default)
					)
					(fill
						(type none)
					)
				)
			)
			(symbol "R_1_1"
				(pin passive line
					(at 0 3.81 270)
					(length 1.27)
					(name "~"
						(effects
							(font
								(size 1.27 1.27)
							)
						)
					)
					(number "1"
						(effects
							(font
								(size 1.27 1.27)
							)
						)
					)
				)
				(pin passive line
					(at 0 -3.81 90)
					(length 1.27)
					(name "~"
						(effects
							(font
								(size 1.27 1.27)
							)
						)
					)
					(number "2"
						(effects
							(font
								(size 1.27 1.27)
							)
						)
					)
				)
			)
		)
		(symbol "GND_1"
			(power)
			(pin_numbers hide)
			(pin_names
				(offset 0) hide)
			(exclude_from_sim no)
			(in_bom yes)
			(on_board yes)
			(property "Reference" "#PWR"
				(at 0 -6.35 0)
				(effects
					(font
						(size 1.27 1.27)
					)
					(hide yes)
				)
			)
			(property "Value" "GND"
				(at 0 -3.81 0)
				(effects
					(font
						(size 1.27 1.27)
					)
				)
			)
			(property "Footprint" ""
				(at 0 0 0)
				(effects
					(font
						(size 1.27 1.27)
					)
					(hide yes)
				)
			)
			(property "Datasheet" ""
				(at 0 0 0)
				(effects
					(font
						(size 1.27 1.27)
					)
					(hide yes)
				)
			)
			(property "Description" "Power symbol creates a global label with name \"GND\" , ground"
				(at 0 0 0)
				(effects
					(font
						(size 1.27 1.27)
					)
					(hide yes)
				)
			)
			(property "ki_keywords" "global power"
				(at 0 0 0)
				(effects
					(font
						(size 1.27 1.27)
					)
					(hide yes)
				)
			)
			(symbol "GND_1_0_1"
				(polyline
					(pts
						(xy 0 0) (xy 0 -1.27) (xy 1.27 -1.27) (xy 0 -2.54) (xy -1.27 -1.27) (xy 0 -1.27)
					)
					(stroke
						(width 0)
						(type default)
					)
					(fill
						(type none)
					)
				)
			)
			(symbol "GND_1_1_1"
				(pin power_in line
					(at 0 0 270)
					(length 0)
					(name "~"
						(effects
							(font
								(size 1.27 1.27)
							)
						)
					)
					(number "1"
						(effects
							(font
								(size 1.27 1.27)
							)
						)
					)
				)
			)
		)
		(symbol "usini_sensors:module_mpu6050"
			(pin_names
				(offset 1.016)
			)
			(exclude_from_sim no)
			(in_bom yes)
			(on_board yes)
			(property "Reference" "U"
				(at 2.54 21.59 0)
				(effects
					(font
						(size 1.27 1.27)
					)
				)
			)
			(property "Value" "module_mpu6050"
				(at 11.43 -3.81 0)
				(effects
					(font
						(size 1.27 1.27)
					)
				)
			)
			(property "Footprint" "usini_sensors:module_mpu6050"
				(at 11.43 -6.35 0)
				(effects
					(font
						(size 1.27 1.27)
					)
					(hide yes)
				)
			)
			(property "Datasheet" ""
				(at 0 6.35 0)
				(effects
					(font
						(size 1.27 1.27)
					)
					(hide yes)
				)
			)
			(property "Description" ""
				(at 0 0 0)
				(effects
					(font
						(size 1.27 1.27)
					)
					(hide yes)
				)
			)
			(symbol "module_mpu6050_0_1"
				(rectangle
					(start 2.54 20.32)
					(end 19.05 -2.54)
					(stroke
						(width 0)
						(type solid)
					)
					(fill
						(type background)
					)
				)
				(circle
					(center 16.51 0)
					(radius 1.27)
					(stroke
						(width 0)
						(type solid)
					)
					(fill
						(type none)
					)
				)
				(circle
					(center 16.51 17.78)
					(radius 1.27)
					(stroke
						(width 0)
						(type solid)
					)
					(fill
						(type none)
					)
				)
			)
			(symbol "module_mpu6050_1_1"
				(pin input line
					(at 0 17.78 0)
					(length 2.54)
					(name "VCC"
						(effects
							(font
								(size 1.27 1.27)
							)
						)
					)
					(number "1"
						(effects
							(font
								(size 1.27 1.27)
							)
						)
					)
				)
				(pin input line
					(at 0 15.24 0)
					(length 2.54)
					(name "GND"
						(effects
							(font
								(size 1.27 1.27)
							)
						)
					)
					(number "2"
						(effects
							(font
								(size 1.27 1.27)
							)
						)
					)
				)
				(pin input line
					(at 0 12.7 0)
					(length 2.54)
					(name "SCL"
						(effects
							(font
								(size 1.27 1.27)
							)
						)
					)
					(number "3"
						(effects
							(font
								(size 1.27 1.27)
							)
						)
					)
				)
				(pin input line
					(at 0 10.16 0)
					(length 2.54)
					(name "SDA"
						(effects
							(font
								(size 1.27 1.27)
							)
						)
					)
					(number "4"
						(effects
							(font
								(size 1.27 1.27)
							)
						)
					)
				)
				(pin input line
					(at 0 7.62 0)
					(length 2.54)
					(name "XDA"
						(effects
							(font
								(size 1.27 1.27)
							)
						)
					)
					(number "5"
						(effects
							(font
								(size 1.27 1.27)
							)
						)
					)
				)
				(pin input line
					(at 0 5.08 0)
					(length 2.54)
					(name "XCL"
						(effects
							(font
								(size 1.27 1.27)
							)
						)
					)
					(number "6"
						(effects
							(font
								(size 1.27 1.27)
							)
						)
					)
				)
				(pin input line
					(at 0 2.54 0)
					(length 2.54)
					(name "ADD"
						(effects
							(font
								(size 1.27 1.27)
							)
						)
					)
					(number "7"
						(effects
							(font
								(size 1.27 1.27)
							)
						)
					)
				)
				(pin input line
					(at 0 0 0)
					(length 2.54)
					(name "INT"
						(effects
							(font
								(size 1.27 1.27)
							)
						)
					)
					(number "8"
						(effects
							(font
								(size 1.27 1.27)
							)
						)
					)
				)
			)
		)
	)
	(junction
		(at 91.44 43.18)
		(diameter 0)
		(color 0 0 0 0)
		(uuid "42c72f82-de33-49f4-8fd5-080a0ad45a61")
	)
	(junction
		(at 172.72 57.15)
		(diameter 0)
		(color 0 0 0 0)
		(uuid "46636159-e9a3-4e09-959f-df9c8c4df4f1")
	)
	(wire
		(pts
			(xy 172.72 73.66) (xy 189.23 73.66)
		)
		(stroke
			(width 0)
			(type default)
		)
		(uuid "0042a56d-e738-4b2a-821d-137440fae89d")
	)
	(wire
		(pts
			(xy 172.72 57.15) (xy 172.72 55.88)
		)
		(stroke
			(width 0)
			(type default)
		)
		(uuid "028bb0d5-b23c-4860-8a6f-8e2fdba56008")
	)
	(wire
		(pts
			(xy 74.93 68.58) (xy 95.25 68.58)
		)
		(stroke
			(width 0)
			(type default)
		)
		(uuid "03f2e38c-52e7-484d-8851-f5e157bd28bb")
	)
	(wire
		(pts
			(xy 74.93 50.8) (xy 95.25 50.8)
		)
		(stroke
			(width 0)
			(type default)
		)
		(uuid "07688d00-c25c-4e8b-a172-a026a35057a0")
	)
	(wire
		(pts
			(xy 208.28 119.38) (xy 215.9 119.38)
		)
		(stroke
			(width 0)
			(type default)
		)
		(uuid "0ca4bf4b-597a-4c2e-9402-ba75ab3cf049")
	)
	(wire
		(pts
			(xy 74.93 58.42) (xy 74.93 50.8)
		)
		(stroke
			(width 0)
			(type default)
		)
		(uuid "0e00cdbe-1215-4ac1-8044-466a22b45534")
	)
	(wire
		(pts
			(xy 172.72 66.04) (xy 199.39 66.04)
		)
		(stroke
			(width 0)
			(type default)
		)
		(uuid "0ed3218e-1d6a-4fc9-ab28-d7eab9f1787f")
	)
	(wire
		(pts
			(xy 83.82 93.98) (xy 88.9 93.98)
		)
		(stroke
			(width 0)
			(type default)
		)
		(uuid "161ba4ef-be8f-4df7-93ea-8ee3e0bf3ddd")
	)
	(wire
		(pts
			(xy 200.66 111.76) (xy 195.58 111.76)
		)
		(stroke
			(width 0)
			(type default)
		)
		(uuid "17be15ec-0e4a-441d-8a20-01d8a6a52468")
	)
	(wire
		(pts
			(xy 199.39 66.04) (xy 199.39 109.22)
		)
		(stroke
			(width 0)
			(type default)
		)
		(uuid "1f351314-53bf-4e41-922d-2b626a97b273")
	)
	(wire
		(pts
			(xy 81.28 77.47) (xy 87.63 77.47)
		)
		(stroke
			(width 0)
			(type default)
		)
		(uuid "23ac8673-2b17-4475-a9a9-c1b08921de29")
	)
	(wire
		(pts
			(xy 172.72 71.12) (xy 191.77 71.12)
		)
		(stroke
			(width 0)
			(type default)
		)
		(uuid "29ebb7c7-dc63-4c89-ba76-c4b026323a14")
	)
	(wire
		(pts
			(xy 81.28 88.9) (xy 86.36 88.9)
		)
		(stroke
			(width 0)
			(type default)
		)
		(uuid "2b5f45b1-d18d-4369-9657-2b6933943816")
	)
	(wire
		(pts
			(xy 172.72 60.96) (xy 213.36 60.96)
		)
		(stroke
			(width 0)
			(type default)
		)
		(uuid "3e049164-7a63-48d4-8372-2df54eda1314")
	)
	(wire
		(pts
			(xy 191.77 71.12) (xy 191.77 114.3)
		)
		(stroke
			(width 0)
			(type default)
		)
		(uuid "448ad8f9-46ac-49e2-954c-eedca5a3f5fb")
	)
	(wire
		(pts
			(xy 134.62 53.34) (xy 142.24 53.34)
		)
		(stroke
			(width 0)
			(type default)
		)
		(uuid "46d6ab36-13e2-454f-82ff-b26fbc98b04e")
	)
	(wire
		(pts
			(xy 83.82 80.01) (xy 83.82 86.36)
		)
		(stroke
			(width 0)
			(type default)
		)
		(uuid "48ecedff-079f-4d9e-a090-2ee0e9407250")
	)
	(wire
		(pts
			(xy 172.72 68.58) (xy 195.58 68.58)
		)
		(stroke
			(width 0)
			(type default)
		)
		(uuid "4a928b60-6d0e-4215-9d09-16f445e3c912")
	)
	(wire
		(pts
			(xy 214.63 105.41) (xy 214.63 106.68)
		)
		(stroke
			(width 0)
			(type default)
		)
		(uuid "4ea983df-4582-4c4d-81c3-bf61c9487cce")
	)
	(wire
		(pts
			(xy 90.17 43.18) (xy 91.44 43.18)
		)
		(stroke
			(width 0)
			(type default)
		)
		(uuid "50d18929-cf16-454e-80c9-95f6c6eea33f")
	)
	(wire
		(pts
			(xy 189.23 73.66) (xy 189.23 116.84)
		)
		(stroke
			(width 0)
			(type default)
		)
		(uuid "534e9f62-de7b-4a00-9845-ebb7f0ec1444")
	)
	(wire
		(pts
			(xy 200.66 109.22) (xy 199.39 109.22)
		)
		(stroke
			(width 0)
			(type default)
		)
		(uuid "59270e31-13aa-4e78-9428-78567e19e7b3")
	)
	(wire
		(pts
			(xy 195.58 68.58) (xy 195.58 111.76)
		)
		(stroke
			(width 0)
			(type default)
		)
		(uuid "6ac95737-1efb-4e15-b3b7-3d6e2ce2eba4")
	)
	(wire
		(pts
			(xy 83.82 91.44) (xy 83.82 93.98)
		)
		(stroke
			(width 0)
			(type default)
		)
		(uuid "74214558-87ad-4291-b5cf-d95271d1b5f4")
	)
	(wire
		(pts
			(xy 81.28 91.44) (xy 83.82 91.44)
		)
		(stroke
			(width 0)
			(type default)
		)
		(uuid "7d233153-2e1a-408e-ad74-bca517514a0b")
	)
	(wire
		(pts
			(xy 91.44 43.18) (xy 91.44 44.45)
		)
		(stroke
			(width 0)
			(type default)
		)
		(uuid "8001c768-e99f-4e8f-9e39-afca7cf74e2d")
	)
	(wire
		(pts
			(xy 97.79 59.69) (xy 97.79 60.96)
		)
		(stroke
			(width 0)
			(type default)
		)
		(uuid "80436938-2c9b-406f-9a5e-a19d31af4a08")
	)
	(wire
		(pts
			(xy 90.17 40.64) (xy 91.44 40.64)
		)
		(stroke
			(width 0)
			(type default)
		)
		(uuid "82e0498e-880b-4478-8da1-fa07f7905b30")
	)
	(wire
		(pts
			(xy 215.9 111.76) (xy 208.28 111.76)
		)
		(stroke
			(width 0)
			(type default)
		)
		(uuid "8407b579-7f20-4e65-83d7-2a3d875b9c66")
	)
	(wire
		(pts
			(xy 214.63 106.68) (xy 215.9 106.68)
		)
		(stroke
			(width 0)
			(type default)
		)
		(uuid "8faff4f6-4736-4cf3-83af-f7c13b6d1671")
	)
	(wire
		(pts
			(xy 69.85 58.42) (xy 74.93 58.42)
		)
		(stroke
			(width 0)
			(type default)
		)
		(uuid "90cb86a9-dae6-470d-8ce4-e6afbdda6af7")
	)
	(wire
		(pts
			(xy 215.9 114.3) (xy 208.28 114.3)
		)
		(stroke
			(width 0)
			(type default)
		)
		(uuid "961c99ef-4102-49f2-9a3f-2e471208d290")
	)
	(wire
		(pts
			(xy 95.25 68.58) (xy 95.25 66.04)
		)
		(stroke
			(width 0)
			(type default)
		)
		(uuid "97baffd1-eec2-4f83-987a-8efb1e33cca0")
	)
	(wire
		(pts
			(xy 69.85 60.96) (xy 74.93 60.96)
		)
		(stroke
			(width 0)
			(type default)
		)
		(uuid "a547563d-aa65-48b5-96f6-3a80d0faa30a")
	)
	(wire
		(pts
			(xy 172.72 63.5) (xy 213.36 63.5)
		)
		(stroke
			(width 0)
			(type default)
		)
		(uuid "af2ac599-bc86-41b1-9308-6aebcfdd4cb6")
	)
	(wire
		(pts
			(xy 208.28 116.84) (xy 215.9 116.84)
		)
		(stroke
			(width 0)
			(type default)
		)
		(uuid "b9cb5ac6-db37-431a-b27a-587cf8679a37")
	)
	(wire
		(pts
			(xy 91.44 40.64) (xy 91.44 43.18)
		)
		(stroke
			(width 0)
			(type default)
		)
		(uuid "caf861a5-0f8f-4774-8eea-d51b2041db2e")
	)
	(wire
		(pts
			(xy 215.9 109.22) (xy 208.28 109.22)
		)
		(stroke
			(width 0)
			(type default)
		)
		(uuid "d13c0f33-c861-4a0c-bcbd-f7fa2b40f27e")
	)
	(wire
		(pts
			(xy 172.72 57.15) (xy 172.72 58.42)
		)
		(stroke
			(width 0)
			(type default)
		)
		(uuid "d39712e4-a730-4165-b399-5b02e12256d6")
	)
	(wire
		(pts
			(xy 200.66 114.3) (xy 191.77 114.3)
		)
		(stroke
			(width 0)
			(type default)
		)
		(uuid "d53d969b-1bf9-41ef-8562-39abb0cb5814")
	)
	(wire
		(pts
			(xy 99.06 63.5) (xy 95.25 63.5)
		)
		(stroke
			(width 0)
			(type default)
		)
		(uuid "d76c659e-2550-4c3b-97df-a4217b5003f1")
	)
	(wire
		(pts
			(xy 142.24 58.42) (xy 133.35 58.42)
		)
		(stroke
			(width 0)
			(type default)
		)
		(uuid "d79d22a4-076e-4418-89bd-1b1a515c3dcc")
	)
	(wire
		(pts
			(xy 200.66 116.84) (xy 189.23 116.84)
		)
		(stroke
			(width 0)
			(type default)
		)
		(uuid "d9fe7496-d38a-4ce2-8f4f-e501e4c34952")
	)
	(wire
		(pts
			(xy 97.79 60.96) (xy 95.25 60.96)
		)
		(stroke
			(width 0)
			(type default)
		)
		(uuid "e23d5d09-dd8d-4ba3-99bf-a21f91332500")
	)
	(wire
		(pts
			(xy 214.63 105.41) (xy 212.09 105.41)
		)
		(stroke
			(width 0)
			(type default)
		)
		(uuid "e24fc64c-4c58-460e-96ad-e7bc19e5564e")
	)
	(wire
		(pts
			(xy 81.28 80.01) (xy 83.82 80.01)
		)
		(stroke
			(width 0)
			(type default)
		)
		(uuid "e40524d4-8b67-4ccd-b930-0bbbd9faf749")
	)
	(wire
		(pts
			(xy 176.53 57.15) (xy 172.72 57.15)
		)
		(stroke
			(width 0)
			(type default)
		)
		(uuid "ee47999e-95b3-402b-806c-140fa2a1b7e3")
	)
	(wire
		(pts
			(xy 74.93 60.96) (xy 74.93 68.58)
		)
		(stroke
			(width 0)
			(type default)
		)
		(uuid "f0b56ee6-f45d-46ab-8688-9154603def09")
	)
	(wire
		(pts
			(xy 95.25 50.8) (xy 95.25 58.42)
		)
		(stroke
			(width 0)
			(type default)
		)
		(uuid "f97a88fc-63d0-46b7-8a13-876332588b98")
	)
	(wire
		(pts
			(xy 90.17 38.1) (xy 93.98 38.1)
		)
		(stroke
			(width 0)
			(type default)
		)
		(uuid "f9e95525-228c-4c5a-81f7-7c443cefae11")
	)
	(wire
		(pts
			(xy 83.82 86.36) (xy 81.28 86.36)
		)
		(stroke
			(width 0)
			(type default)
		)
		(uuid "fb8077a2-f25b-4898-8974-25fe7f7013be")
	)
	(label "Out +"
		(at 81.28 62.23 0)
		(fields_autoplaced yes)
		(effects
			(font
				(size 1.27 1.27)
			)
			(justify left bottom)
		)
		(uuid "29cd5a18-7b2d-4021-bd7e-e221557f2dc9")
	)
	(label "GND"
		(at 72.39 90.17 0)
		(fields_autoplaced yes)
		(effects
			(font
				(size 1.27 1.27)
			)
			(justify left bottom)
		)
		(uuid "455c2d46-88e2-4214-b4d3-02c04bf45189")
	)
	(label "Out -"
		(at 81.28 64.77 0)
		(fields_autoplaced yes)
		(effects
			(font
				(size 1.27 1.27)
			)
			(justify left bottom)
		)
		(uuid "47357e73-edf7-47e4-9d3e-916f5a5e3420")
	)
	(label "Vo"
		(at 73.66 92.71 0)
		(fields_autoplaced yes)
		(effects
			(font
				(size 1.27 1.27)
			)
			(justify left bottom)
		)
		(uuid "7db22837-acfd-4357-a5d1-8a25ad475ea7")
	)
	(label "Vi"
		(at 73.66 87.63 0)
		(fields_autoplaced yes)
		(effects
			(font
				(size 1.27 1.27)
			)
			(justify left bottom)
		)
		(uuid "7ef09f31-6ba7-467d-b412-b730785df54c")
	)
	(label "connector -"
		(at 77.47 67.31 0)
		(fields_autoplaced yes)
		(effects
			(font
				(size 1.27 1.27)
			)
			(justify left bottom)
		)
		(uuid "b0be0d6b-d522-44a3-aebf-6f01c4bbbc9b")
	)
	(label "connector +"
		(at 77.47 59.69 0)
		(fields_autoplaced yes)
		(effects
			(font
				(size 1.27 1.27)
			)
			(justify left bottom)
		)
		(uuid "d5f7a67e-ab04-4ac7-b0a2-22d6d123a6f5")
	)
	(global_label "OUT +"
		(shape input)
		(at 93.98 38.1 0)
		(fields_autoplaced yes)
		(effects
			(font
				(size 1.27 1.27)
			)
			(justify left)
		)
		(uuid "1116e68c-ea57-4001-9c14-424601ce9898")
		(property "Intersheetrefs" "${INTERSHEET_REFS}"
			(at 103.1338 38.1 0)
			(effects
				(font
					(size 1.27 1.27)
				)
				(justify left)
				(hide yes)
			)
		)
	)
	(global_label "OUT +"
		(shape input)
		(at 87.63 77.47 0)
		(fields_autoplaced yes)
		(effects
			(font
				(size 1.27 1.27)
			)
			(justify left)
		)
		(uuid "419df213-5555-41f9-b652-631af70828e6")
		(property "Intersheetrefs" "${INTERSHEET_REFS}"
			(at 96.7838 77.47 0)
			(effects
				(font
					(size 1.27 1.27)
				)
				(justify left)
				(hide yes)
			)
		)
	)
	(global_label "OUT +"
		(shape input)
		(at 97.79 59.69 0)
		(fields_autoplaced yes)
		(effects
			(font
				(size 1.27 1.27)
			)
			(justify left)
		)
		(uuid "4e062eed-3ea6-4ca6-ae06-f8d0dfbfb74c")
		(property "Intersheetrefs" "${INTERSHEET_REFS}"
			(at 106.9438 59.69 0)
			(effects
				(font
					(size 1.27 1.27)
				)
				(justify left)
				(hide yes)
			)
		)
	)
	(global_label "+VCC"
		(shape input)
		(at 133.35 58.42 180)
		(fields_autoplaced yes)
		(effects
			(font
				(size 1.27 1.27)
			)
			(justify right)
		)
		(uuid "aa6dc1bc-e737-44f5-8552-4da086efd9a6")
		(property "Intersheetrefs" "${INTERSHEET_REFS}"
			(at 125.1638 58.42 0)
			(effects
				(font
					(size 1.27 1.27)
				)
				(justify right)
				(hide yes)
			)
		)
	)
	(global_label "+VCC"
		(shape input)
		(at 88.9 93.98 0)
		(fields_autoplaced yes)
		(effects
			(font
				(size 1.27 1.27)
			)
			(justify left)
		)
		(uuid "c4b75492-aafd-4464-834f-90436573ebe8")
		(property "Intersheetrefs" "${INTERSHEET_REFS}"
			(at 97.0862 93.98 0)
			(effects
				(font
					(size 1.27 1.27)
				)
				(justify left)
				(hide yes)
			)
		)
	)
	(global_label "+VCC"
		(shape input)
		(at 200.66 119.38 180)
		(fields_autoplaced yes)
		(effects
			(font
				(size 1.27 1.27)
			)
			(justify right)
		)
		(uuid "d9b99e6f-6a98-4fb5-a5ac-6cf80c7207a8")
		(property "Intersheetrefs" "${INTERSHEET_REFS}"
			(at 192.4738 119.38 0)
			(effects
				(font
					(size 1.27 1.27)
				)
				(justify right)
				(hide yes)
			)
		)
	)
	(global_label "+VCC"
		(shape input)
		(at 213.36 68.58 180)
		(fields_autoplaced yes)
		(effects
			(font
				(size 1.27 1.27)
			)
			(justify right)
		)
		(uuid "e42f73f6-1ff4-493b-ae72-808deccda390")
		(property "Intersheetrefs" "${INTERSHEET_REFS}"
			(at 205.1738 68.58 0)
			(effects
				(font
					(size 1.27 1.27)
				)
				(justify right)
				(hide yes)
			)
		)
	)
	(symbol
		(lib_id "Device:R")
		(at 204.47 116.84 90)
		(unit 1)
		(exclude_from_sim no)
		(in_bom yes)
		(on_board yes)
		(dnp no)
		(uuid "08ca8bb3-336c-49e3-91b2-a2299571d389")
		(property "Reference" "R5"
			(at 204.724 116.84 90)
			(effects
				(font
					(size 1.27 1.27)
				)
			)
		)
		(property "Value" "R"
			(at 204.47 113.03 90)
			(effects
				(font
					(size 1.27 1.27)
				)
				(hide yes)
			)
		)
		(property "Footprint" "Resistor_THT:R_Axial_DIN0204_L3.6mm_D1.6mm_P7.62mm_Horizontal"
			(at 204.47 118.618 90)
			(effects
				(font
					(size 1.27 1.27)
				)
				(hide yes)
			)
		)
		(property "Datasheet" "~"
			(at 204.47 116.84 0)
			(effects
				(font
					(size 1.27 1.27)
				)
				(hide yes)
			)
		)
		(property "Description" "Resistor"
			(at 204.47 116.84 0)
			(effects
				(font
					(size 1.27 1.27)
				)
				(hide yes)
			)
		)
		(pin "1"
			(uuid "4909a014-52b2-42db-ab39-39375b9cca7d")
		)
		(pin "2"
			(uuid "0a87f107-dbe1-4742-bc8b-a9730da063f4")
		)
		(instances
			(project "sc"
				(path "/08fe1d43-60d2-463e-995e-fbcce27e340c"
					(reference "R5")
					(unit 1)
				)
			)
		)
	)
	(symbol
		(lib_name "GND_1")
		(lib_id "power:GND")
		(at 91.44 44.45 0)
		(unit 1)
		(exclude_from_sim no)
		(in_bom yes)
		(on_board yes)
		(dnp no)
		(uuid "0bd84b74-1e96-4516-9a9d-4a830f736899")
		(property "Reference" "#PWR06"
			(at 91.44 50.8 0)
			(effects
				(font
					(size 1.27 1.27)
				)
				(hide yes)
			)
		)
		(property "Value" "GND"
			(at 94.742 45.974 0)
			(effects
				(font
					(size 1.27 1.27)
				)
			)
		)
		(property "Footprint" ""
			(at 91.44 44.45 0)
			(effects
				(font
					(size 1.27 1.27)
				)
				(hide yes)
			)
		)
		(property "Datasheet" ""
			(at 91.44 44.45 0)
			(effects
				(font
					(size 1.27 1.27)
				)
				(hide yes)
			)
		)
		(property "Description" "Power symbol creates a global label with name \"GND\" , ground"
			(at 91.44 44.45 0)
			(effects
				(font
					(size 1.27 1.27)
				)
				(hide yes)
			)
		)
		(pin "1"
			(uuid "a6495db7-f163-433d-b80f-362cbe8cec30")
		)
		(instances
			(project "sc"
				(path "/08fe1d43-60d2-463e-995e-fbcce27e340c"
					(reference "#PWR06")
					(unit 1)
				)
			)
		)
	)
	(symbol
		(lib_id "Connector:Conn_01x03_Pin")
		(at 76.2 88.9 0)
		(unit 1)
		(exclude_from_sim no)
		(in_bom yes)
		(on_board yes)
		(dnp no)
		(uuid "2767fd78-bb97-438a-acca-3678b7f4dead")
		(property "Reference" "Fuente1"
			(at 78.74 83.82 0)
			(effects
				(font
					(size 1.27 1.27)
				)
			)
		)
		(property "Value" "~"
			(at 76.835 85.09 0)
			(effects
				(font
					(size 1.27 1.27)
				)
			)
		)
		(property "Footprint" "Connector_TE-Connectivity:TE_826576-3_1x03_P2.54mm_Vertical"
			(at 86.106 80.264 0)
			(effects
				(font
					(size 1.27 1.27)
				)
				(hide yes)
			)
		)
		(property "Datasheet" "~"
			(at 76.2 88.9 0)
			(effects
				(font
					(size 1.27 1.27)
				)
				(hide yes)
			)
		)
		(property "Description" "Generic connector, single row, 01x03, script generated"
			(at 76.2 88.9 0)
			(effects
				(font
					(size 1.27 1.27)
				)
				(hide yes)
			)
		)
		(pin "1"
			(uuid "545830f0-8902-41c3-8c84-58e3293fc9f7")
		)
		(pin "2"
			(uuid "f9da4049-02ec-4634-8061-c1ed025c9078")
		)
		(pin "3"
			(uuid "85c979d3-5698-4fdf-84f4-a9b12fad6241")
		)
		(instances
			(project "sc"
				(path "/08fe1d43-60d2-463e-995e-fbcce27e340c"
					(reference "Fuente1")
					(unit 1)
				)
			)
		)
	)
	(symbol
		(lib_id "Connector:Conn_01x02_Pin")
		(at 64.77 58.42 0)
		(unit 1)
		(exclude_from_sim no)
		(in_bom yes)
		(on_board yes)
		(dnp no)
		(fields_autoplaced yes)
		(uuid "38730467-3aab-4ed0-91d6-82cea1217338")
		(property "Reference" "J4"
			(at 65.405 53.34 0)
			(effects
				(font
					(size 1.27 1.27)
				)
			)
		)
		(property "Value" "connector"
			(at 65.405 55.88 0)
			(effects
				(font
					(size 1.27 1.27)
				)
			)
		)
		(property "Footprint" "footprints:Molex_KK-254_1x02_P2.54mm_Horizontal"
			(at 64.77 58.42 0)
			(effects
				(font
					(size 1.27 1.27)
				)
				(hide yes)
			)
		)
		(property "Datasheet" "~"
			(at 64.77 58.42 0)
			(effects
				(font
					(size 1.27 1.27)
				)
				(hide yes)
			)
		)
		(property "Description" "Generic connector, single row, 01x02, script generated"
			(at 64.77 58.42 0)
			(effects
				(font
					(size 1.27 1.27)
				)
				(hide yes)
			)
		)
		(pin "1"
			(uuid "7c411eda-c579-49a7-9b4d-97b8b4ac88ab")
		)
		(pin "2"
			(uuid "c6829d5d-543b-4d4d-a132-a098490413df")
		)
		(instances
			(project "sc"
				(path "/08fe1d43-60d2-463e-995e-fbcce27e340c"
					(reference "J4")
					(unit 1)
				)
			)
		)
	)
	(symbol
		(lib_name "GND_1")
		(lib_id "power:GND")
		(at 86.36 88.9 0)
		(unit 1)
		(exclude_from_sim no)
		(in_bom yes)
		(on_board yes)
		(dnp no)
		(uuid "3dea1f3a-e72e-41b7-a17f-59c19a4d9536")
		(property "Reference" "#PWR03"
			(at 86.36 95.25 0)
			(effects
				(font
					(size 1.27 1.27)
				)
				(hide yes)
			)
		)
		(property "Value" "GND"
			(at 89.662 90.424 0)
			(effects
				(font
					(size 1.27 1.27)
				)
			)
		)
		(property "Footprint" ""
			(at 86.36 88.9 0)
			(effects
				(font
					(size 1.27 1.27)
				)
				(hide yes)
			)
		)
		(property "Datasheet" ""
			(at 86.36 88.9 0)
			(effects
				(font
					(size 1.27 1.27)
				)
				(hide yes)
			)
		)
		(property "Description" "Power symbol creates a global label with name \"GND\" , ground"
			(at 86.36 88.9 0)
			(effects
				(font
					(size 1.27 1.27)
				)
				(hide yes)
			)
		)
		(pin "1"
			(uuid "72e542f4-c916-4450-b585-fdcdd33d0091")
		)
		(instances
			(project "sc"
				(path "/08fe1d43-60d2-463e-995e-fbcce27e340c"
					(reference "#PWR03")
					(unit 1)
				)
			)
		)
	)
	(symbol
		(lib_name "GND_1")
		(lib_id "power:GND")
		(at 99.06 63.5 90)
		(unit 1)
		(exclude_from_sim no)
		(in_bom yes)
		(on_board yes)
		(dnp no)
		(uuid "5c7a8907-03d1-491b-9384-9ded408165e3")
		(property "Reference" "#PWR05"
			(at 105.41 63.5 0)
			(effects
				(font
					(size 1.27 1.27)
				)
				(hide yes)
			)
		)
		(property "Value" "GND"
			(at 100.584 60.198 0)
			(effects
				(font
					(size 1.27 1.27)
				)
				(hide yes)
			)
		)
		(property "Footprint" ""
			(at 99.06 63.5 0)
			(effects
				(font
					(size 1.27 1.27)
				)
				(hide yes)
			)
		)
		(property "Datasheet" ""
			(at 99.06 63.5 0)
			(effects
				(font
					(size 1.27 1.27)
				)
				(hide yes)
			)
		)
		(property "Description" "Power symbol creates a global label with name \"GND\" , ground"
			(at 99.06 63.5 0)
			(effects
				(font
					(size 1.27 1.27)
				)
				(hide yes)
			)
		)
		(pin "1"
			(uuid "6147aba0-6e7a-4f32-b2c4-708adcff8f89")
		)
		(instances
			(project "sc"
				(path "/08fe1d43-60d2-463e-995e-fbcce27e340c"
					(reference "#PWR05")
					(unit 1)
				)
			)
		)
	)
	(symbol
		(lib_id "Device:R")
		(at 204.47 109.22 90)
		(unit 1)
		(exclude_from_sim no)
		(in_bom yes)
		(on_board yes)
		(dnp no)
		(uuid "655d8f67-7b58-482b-ad37-b90150fce272")
		(property "Reference" "R2"
			(at 204.724 109.22 90)
			(effects
				(font
					(size 1.27 1.27)
				)
			)
		)
		(property "Value" "R"
			(at 204.47 105.41 90)
			(effects
				(font
					(size 1.27 1.27)
				)
				(hide yes)
			)
		)
		(property "Footprint" "Resistor_THT:R_Axial_DIN0204_L3.6mm_D1.6mm_P7.62mm_Horizontal"
			(at 204.47 110.998 90)
			(effects
				(font
					(size 1.27 1.27)
				)
				(hide yes)
			)
		)
		(property "Datasheet" "~"
			(at 204.47 109.22 0)
			(effects
				(font
					(size 1.27 1.27)
				)
				(hide yes)
			)
		)
		(property "Description" "Resistor"
			(at 204.47 109.22 0)
			(effects
				(font
					(size 1.27 1.27)
				)
				(hide yes)
			)
		)
		(pin "1"
			(uuid "8c1a9ea1-a57f-4d18-af09-07f24dccf469")
		)
		(pin "2"
			(uuid "7d803f41-ca59-49cf-b53d-1614f1e73b53")
		)
		(instances
			(project "sc"
				(path "/08fe1d43-60d2-463e-995e-fbcce27e340c"
					(reference "R2")
					(unit 1)
				)
			)
		)
	)
	(symbol
		(lib_id "Device:R")
		(at 204.47 114.3 90)
		(unit 1)
		(exclude_from_sim no)
		(in_bom yes)
		(on_board yes)
		(dnp no)
		(uuid "855c1f6d-9262-4024-acdf-51b7ada5d5a0")
		(property "Reference" "R4"
			(at 204.724 114.3 90)
			(effects
				(font
					(size 1.27 1.27)
				)
			)
		)
		(property "Value" "R"
			(at 204.47 110.49 90)
			(effects
				(font
					(size 1.27 1.27)
				)
				(hide yes)
			)
		)
		(property "Footprint" "Resistor_THT:R_Axial_DIN0204_L3.6mm_D1.6mm_P7.62mm_Horizontal"
			(at 204.47 116.078 90)
			(effects
				(font
					(size 1.27 1.27)
				)
				(hide yes)
			)
		)
		(property "Datasheet" "~"
			(at 204.47 114.3 0)
			(effects
				(font
					(size 1.27 1.27)
				)
				(hide yes)
			)
		)
		(property "Description" "Resistor"
			(at 204.47 114.3 0)
			(effects
				(font
					(size 1.27 1.27)
				)
				(hide yes)
			)
		)
		(pin "1"
			(uuid "a8288cbe-358c-4a43-9c51-1ddb65b95118")
		)
		(pin "2"
			(uuid "4f746475-f257-428e-b506-e11c626cc7d4")
		)
		(instances
			(project "sc"
				(path "/08fe1d43-60d2-463e-995e-fbcce27e340c"
					(reference "R4")
					(unit 1)
				)
			)
		)
	)
	(symbol
		(lib_id "Connector:Conn_01x06_Pin")
		(at 220.98 111.76 0)
		(mirror y)
		(unit 1)
		(exclude_from_sim no)
		(in_bom yes)
		(on_board yes)
		(dnp no)
		(uuid "9dd53303-01c4-4a6f-b92a-08155de4cce6")
		(property "Reference" "J1"
			(at 220.345 101.6 0)
			(effects
				(font
					(size 1.27 1.27)
				)
			)
		)
		(property "Value" "Conn_01x06_Pin"
			(at 220.345 104.14 0)
			(effects
				(font
					(size 1.27 1.27)
				)
			)
		)
		(property "Footprint" "footprints:Molex_KK-254_1x06_P2.54mm_Horizontal"
			(at 220.98 111.76 0)
			(effects
				(font
					(size 1.27 1.27)
				)
				(hide yes)
			)
		)
		(property "Datasheet" "~"
			(at 220.98 111.76 0)
			(effects
				(font
					(size 1.27 1.27)
				)
				(hide yes)
			)
		)
		(property "Description" "Generic connector, single row, 01x06, script generated"
			(at 220.98 111.76 0)
			(effects
				(font
					(size 1.27 1.27)
				)
				(hide yes)
			)
		)
		(pin "5"
			(uuid "f29395ec-7d17-452b-af35-c2717fbf893c")
		)
		(pin "1"
			(uuid "c2057bd4-b66b-4263-aedd-9cf3f1e2f9a7")
		)
		(pin "4"
			(uuid "fd45974e-aa8b-4e17-8e30-2d81209de247")
		)
		(pin "3"
			(uuid "016fed11-24fd-47e7-87bf-5a8dd6fb42a6")
		)
		(pin "2"
			(uuid "8010f2fb-d42f-4f33-a484-6a13615d653c")
		)
		(pin "6"
			(uuid "f37d08c5-718e-4e4d-9f95-b51a2b14d542")
		)
		(instances
			(project ""
				(path "/08fe1d43-60d2-463e-995e-fbcce27e340c"
					(reference "J1")
					(unit 1)
				)
			)
		)
	)
	(symbol
		(lib_id "Connector:Barrel_Jack_Switch")
		(at 82.55 40.64 0)
		(unit 1)
		(exclude_from_sim no)
		(in_bom yes)
		(on_board yes)
		(dnp no)
		(fields_autoplaced yes)
		(uuid "9f0c810c-61ef-46eb-8232-0303dbb5e552")
		(property "Reference" "J5"
			(at 82.55 31.75 0)
			(effects
				(font
					(size 1.27 1.27)
				)
			)
		)
		(property "Value" "Barrel_Jack_Switch"
			(at 82.55 34.29 0)
			(effects
				(font
					(size 1.27 1.27)
				)
			)
		)
		(property "Footprint" "Connector_BarrelJack:BarrelJack_Horizontal"
			(at 83.82 41.656 0)
			(effects
				(font
					(size 1.27 1.27)
				)
				(hide yes)
			)
		)
		(property "Datasheet" "~"
			(at 83.82 41.656 0)
			(effects
				(font
					(size 1.27 1.27)
				)
				(hide yes)
			)
		)
		(property "Description" "DC Barrel Jack with an internal switch"
			(at 82.55 40.64 0)
			(effects
				(font
					(size 1.27 1.27)
				)
				(hide yes)
			)
		)
		(pin "1"
			(uuid "612f467e-04e2-4019-be0a-db34f54b755e")
		)
		(pin "3"
			(uuid "14244563-7751-4693-ae45-64081a051196")
		)
		(pin "2"
			(uuid "ed51d014-dc8c-4028-951d-ba8bcb389ab9")
		)
		(instances
			(project ""
				(path "/08fe1d43-60d2-463e-995e-fbcce27e340c"
					(reference "J5")
					(unit 1)
				)
			)
		)
	)
	(symbol
		(lib_id "Device:R")
		(at 204.47 111.76 90)
		(unit 1)
		(exclude_from_sim no)
		(in_bom yes)
		(on_board yes)
		(dnp no)
		(uuid "a82fce80-d3a8-40f8-af65-a1afbe24ef8c")
		(property "Reference" "R3"
			(at 204.724 111.76 90)
			(effects
				(font
					(size 1.27 1.27)
				)
			)
		)
		(property "Value" "R"
			(at 204.47 107.95 90)
			(effects
				(font
					(size 1.27 1.27)
				)
				(hide yes)
			)
		)
		(property "Footprint" "Resistor_THT:R_Axial_DIN0204_L3.6mm_D1.6mm_P7.62mm_Horizontal"
			(at 204.47 113.538 90)
			(effects
				(font
					(size 1.27 1.27)
				)
				(hide yes)
			)
		)
		(property "Datasheet" "~"
			(at 204.47 111.76 0)
			(effects
				(font
					(size 1.27 1.27)
				)
				(hide yes)
			)
		)
		(property "Description" "Resistor"
			(at 204.47 111.76 0)
			(effects
				(font
					(size 1.27 1.27)
				)
				(hide yes)
			)
		)
		(pin "1"
			(uuid "4df7f659-8096-4ca3-a3eb-4e839496c88d")
		)
		(pin "2"
			(uuid "c2657dff-04ea-48a6-8c6d-6144b92489e8")
		)
		(instances
			(project "sc"
				(path "/08fe1d43-60d2-463e-995e-fbcce27e340c"
					(reference "R3")
					(unit 1)
				)
			)
		)
	)
	(symbol
		(lib_id "usini_sensors:module_mpu6050")
		(at 213.36 50.8 0)
		(mirror x)
		(unit 1)
		(exclude_from_sim no)
		(in_bom yes)
		(on_board yes)
		(dnp no)
		(fields_autoplaced yes)
		(uuid "aa52d468-c5e0-4bcb-a3cc-32e9e304280e")
		(property "Reference" "U2"
			(at 233.68 60.9601 0)
			(effects
				(font
					(size 1.27 1.27)
				)
				(justify left)
			)
		)
		(property "Value" "module_mpu6050"
			(at 233.68 58.4201 0)
			(effects
				(font
					(size 1.27 1.27)
				)
				(justify left)
			)
		)
		(property "Footprint" "usini_sensors:module_mpu6050"
			(at 224.79 44.45 0)
			(effects
				(font
					(size 1.27 1.27)
				)
				(hide yes)
			)
		)
		(property "Datasheet" ""
			(at 213.36 57.15 0)
			(effects
				(font
					(size 1.27 1.27)
				)
				(hide yes)
			)
		)
		(property "Description" ""
			(at 213.36 50.8 0)
			(effects
				(font
					(size 1.27 1.27)
				)
				(hide yes)
			)
		)
		(pin "2"
			(uuid "742a65b4-5623-4e1d-9220-02eb9f610e89")
		)
		(pin "3"
			(uuid "9a0acd5d-1336-46f7-8200-6c4dc1e781d9")
		)
		(pin "1"
			(uuid "f8c9726c-a0b2-4061-8164-aa3ec664bf50")
		)
		(pin "5"
			(uuid "d7fa2ccc-8bd3-43d3-a745-d02168177b29")
		)
		(pin "6"
			(uuid "e6926e04-6d97-419d-8b73-9bd8f1ed8f6e")
		)
		(pin "4"
			(uuid "32228c23-a2da-43ff-9cde-f12b807240fc")
		)
		(pin "8"
			(uuid "343722d8-069b-46fa-b622-9b027d8dc181")
		)
		(pin "7"
			(uuid "f9c893f1-bc77-44ae-bbe6-fb3d112e7954")
		)
		(instances
			(project "sc"
				(path "/08fe1d43-60d2-463e-995e-fbcce27e340c"
					(reference "U2")
					(unit 1)
				)
			)
		)
	)
	(symbol
		(lib_id "Connector:Conn_01x02_Pin")
		(at 76.2 77.47 0)
		(unit 1)
		(exclude_from_sim no)
		(in_bom yes)
		(on_board yes)
		(dnp no)
		(uuid "b3f36d3d-8ef0-40cc-bdc6-33889ef18be2")
		(property "Reference" "J3"
			(at 78.1051 81.28 90)
			(effects
				(font
					(size 1.27 1.27)
				)
				(justify right)
				(hide yes)
			)
		)
		(property "Value" "Switch"
			(at 80.01 73.66 0)
			(effects
				(font
					(size 1.27 1.27)
				)
				(justify right)
			)
		)
		(property "Footprint" "footprints:Molex_KK-254_1x02_P2.54mm_Horizontal"
			(at 76.2 77.47 0)
			(effects
				(font
					(size 1.27 1.27)
				)
				(hide yes)
			)
		)
		(property "Datasheet" "~"
			(at 76.2 77.47 0)
			(effects
				(font
					(size 1.27 1.27)
				)
				(hide yes)
			)
		)
		(property "Description" "Generic connector, single row, 01x02, script generated"
			(at 76.2 77.47 0)
			(effects
				(font
					(size 1.27 1.27)
				)
				(hide yes)
			)
		)
		(pin "2"
			(uuid "f4cb9b7f-e00c-40d6-8ce6-c325acb7f74e")
		)
		(pin "1"
			(uuid "8fc030d0-3a52-43e8-9372-94709fa9d190")
		)
		(instances
			(project "sc"
				(path "/08fe1d43-60d2-463e-995e-fbcce27e340c"
					(reference "J3")
					(unit 1)
				)
			)
		)
	)
	(symbol
		(lib_name "GND_1")
		(lib_id "power:GND")
		(at 213.36 66.04 270)
		(mirror x)
		(unit 1)
		(exclude_from_sim no)
		(in_bom yes)
		(on_board yes)
		(dnp no)
		(uuid "c8b47ef4-fa13-4169-98a8-456f3d4a5103")
		(property "Reference" "#PWR04"
			(at 207.01 66.04 0)
			(effects
				(font
					(size 1.27 1.27)
				)
				(hide yes)
			)
		)
		(property "Value" "GND"
			(at 207.264 66.294 90)
			(effects
				(font
					(size 1.27 1.27)
				)
			)
		)
		(property "Footprint" ""
			(at 213.36 66.04 0)
			(effects
				(font
					(size 1.27 1.27)
				)
				(hide yes)
			)
		)
		(property "Datasheet" ""
			(at 213.36 66.04 0)
			(effects
				(font
					(size 1.27 1.27)
				)
				(hide yes)
			)
		)
		(property "Description" "Power symbol creates a global label with name \"GND\" , ground"
			(at 213.36 66.04 0)
			(effects
				(font
					(size 1.27 1.27)
				)
				(hide yes)
			)
		)
		(pin "1"
			(uuid "60dca93b-f838-4754-8901-bfa108b7fbfc")
		)
		(instances
			(project "sc"
				(path "/08fe1d43-60d2-463e-995e-fbcce27e340c"
					(reference "#PWR04")
					(unit 1)
				)
			)
		)
	)
	(symbol
		(lib_id "Device:R")
		(at 204.47 119.38 90)
		(unit 1)
		(exclude_from_sim no)
		(in_bom yes)
		(on_board yes)
		(dnp no)
		(uuid "d1c70775-6de4-425b-b018-ffca57faee26")
		(property "Reference" "R1"
			(at 204.724 119.38 90)
			(effects
				(font
					(size 1.27 1.27)
				)
			)
		)
		(property "Value" "R"
			(at 204.47 115.57 90)
			(effects
				(font
					(size 1.27 1.27)
				)
				(hide yes)
			)
		)
		(property "Footprint" "Resistor_THT:R_Axial_DIN0204_L3.6mm_D1.6mm_P7.62mm_Horizontal"
			(at 204.47 121.158 90)
			(effects
				(font
					(size 1.27 1.27)
				)
				(hide yes)
			)
		)
		(property "Datasheet" "~"
			(at 204.47 119.38 0)
			(effects
				(font
					(size 1.27 1.27)
				)
				(hide yes)
			)
		)
		(property "Description" "Resistor"
			(at 204.47 119.38 0)
			(effects
				(font
					(size 1.27 1.27)
				)
				(hide yes)
			)
		)
		(pin "1"
			(uuid "b5724a87-a371-4698-86eb-556700c4c1bf")
		)
		(pin "2"
			(uuid "1cd20c0d-d814-4a7d-a9a9-2e0c90e7c1ab")
		)
		(instances
			(project ""
				(path "/08fe1d43-60d2-463e-995e-fbcce27e340c"
					(reference "R1")
					(unit 1)
				)
			)
		)
	)
	(symbol
		(lib_id "Connector:Conn_01x04_Pin")
		(at 90.17 60.96 0)
		(unit 1)
		(exclude_from_sim no)
		(in_bom yes)
		(on_board yes)
		(dnp no)
		(fields_autoplaced yes)
		(uuid "d3f435d2-4f60-4b37-a6a8-f09c131bb603")
		(property "Reference" "J2"
			(at 90.805 53.34 0)
			(effects
				(font
					(size 1.27 1.27)
				)
			)
		)
		(property "Value" "BMS"
			(at 90.805 55.88 0)
			(effects
				(font
					(size 1.27 1.27)
				)
			)
		)
		(property "Footprint" "Connector_Phoenix_GMSTB:PhoenixContact_GMSTBVA_2,5_4-G-7,62_1x04_P7.62mm_Vertical"
			(at 90.17 60.96 0)
			(effects
				(font
					(size 1.27 1.27)
				)
			)
		)
		(property "Datasheet" "~"
			(at 90.17 60.96 0)
			(show_name yes)
			(effects
				(font
					(size 1.27 1.27)
				)
				(hide yes)
			)
		)
		(property "Description" "Generic connector, single row, 01x04, script generated"
			(at 90.17 60.96 0)
			(effects
				(font
					(size 1.27 1.27)
				)
				(hide yes)
			)
		)
		(pin "4"
			(uuid "cf72d1bb-4b18-4d16-a20e-03c9b9575e5d")
		)
		(pin "1"
			(uuid "af9ad343-40d6-4355-8428-081ec17650bd")
		)
		(pin "3"
			(uuid "460be00e-a940-4570-b131-68712649a77f")
		)
		(pin "2"
			(uuid "6e88b4fd-a25a-4233-9af4-c97ef257fd61")
		)
		(instances
			(project "sc"
				(path "/08fe1d43-60d2-463e-995e-fbcce27e340c"
					(reference "J2")
					(unit 1)
				)
			)
		)
	)
	(symbol
		(lib_id "Arduino:Sparkfun_Pro_Micro")
		(at 157.48 66.04 0)
		(mirror y)
		(unit 1)
		(exclude_from_sim no)
		(in_bom yes)
		(on_board yes)
		(dnp no)
		(uuid "e955d0db-fca5-4ba8-b3c1-549d4e31d35e")
		(property "Reference" "U3"
			(at 157.48 43.18 0)
			(effects
				(font
					(size 1.524 1.524)
				)
			)
		)
		(property "Value" "Sparkfun_Pro_Micro"
			(at 157.48 45.72 0)
			(effects
				(font
					(size 1.524 1.524)
				)
			)
		)
		(property "Footprint" "Arduino:Sparkfun_Pro_Micro"
			(at 157.48 82.55 0)
			(effects
				(font
					(size 1.524 1.524)
				)
				(hide yes)
			)
		)
		(property "Datasheet" "https://www.sparkfun.com/products/12640"
			(at 154.94 92.71 0)
			(effects
				(font
					(size 1.524 1.524)
				)
				(hide yes)
			)
		)
		(property "Description" "Sparkfun Pro Micro"
			(at 157.48 66.04 0)
			(effects
				(font
					(size 1.27 1.27)
				)
				(hide yes)
			)
		)
		(pin "6"
			(uuid "ad1682ef-1c57-4088-8bbb-347184548b63")
		)
		(pin "11"
			(uuid "6910af93-3272-4dfe-b353-eaedff2b0f05")
		)
		(pin "24"
			(uuid "8b0052b9-3796-4dd9-983e-d4971486553f")
		)
		(pin "5"
			(uuid "9ab667f7-25aa-4691-b663-34d64d84f5c9")
		)
		(pin "8"
			(uuid "fc43ad6d-f03d-4eb0-8138-0bb116ac86b7")
		)
		(pin "1"
			(uuid "2a100cb5-a323-4de1-ad3c-6e316d60a8e3")
		)
		(pin "23"
			(uuid "781a6a47-3959-47b0-9a59-f828e2180c64")
		)
		(pin "16"
			(uuid "f67efb16-e6ad-4def-8881-63fdb57f2cd4")
		)
		(pin "9"
			(uuid "ab78d8d4-1c38-4a4e-a117-9511959e8830")
		)
		(pin "17"
			(uuid "1bbed468-55e0-4d49-a067-8b391ec331d9")
		)
		(pin "12"
			(uuid "55e2784e-520d-4bbc-92ba-578bbbe3b60f")
		)
		(pin "21"
			(uuid "6ef419a6-9ffe-42bd-a3f2-8104184e705f")
		)
		(pin "15"
			(uuid "db4e6f3f-346a-4b3f-9a3d-857a56c77571")
		)
		(pin "2"
			(uuid "fa3009ba-a237-4ee5-b525-d340fccdb8bf")
		)
		(pin "10"
			(uuid "a8992f73-05b7-423f-90d2-6ddebe6d04dd")
		)
		(pin "13"
			(uuid "07c39e35-cdcf-48d7-bcbf-6360b1da89db")
		)
		(pin "14"
			(uuid "7aa1379e-ac4f-48b0-82d8-635182809b4f")
		)
		(pin "18"
			(uuid "18f049ec-8e61-4f23-af0b-574195a843cc")
		)
		(pin "20"
			(uuid "287512a6-82c4-49c9-87b1-ad8e58f7b4ec")
		)
		(pin "7"
			(uuid "025d4825-4ffc-44f3-8138-746300508675")
		)
		(pin "22"
			(uuid "8166f5ce-1f02-4e11-a2a7-01e258bbda67")
		)
		(pin "19"
			(uuid "f19868ef-9215-415c-9138-7b367b90d8aa")
		)
		(pin "3"
			(uuid "1c9f46af-2019-4fab-aeb3-26d0f4b7f2b9")
		)
		(pin "4"
			(uuid "8a152b85-b008-4f7c-86fc-91054ceeddf2")
		)
		(instances
			(project "sc"
				(path "/08fe1d43-60d2-463e-995e-fbcce27e340c"
					(reference "U3")
					(unit 1)
				)
			)
		)
	)
	(symbol
		(lib_name "GND_1")
		(lib_id "power:GND")
		(at 176.53 57.15 0)
		(unit 1)
		(exclude_from_sim no)
		(in_bom yes)
		(on_board yes)
		(dnp no)
		(uuid "ec44040a-525f-498f-ac6b-3169cae64f83")
		(property "Reference" "#PWR07"
			(at 176.53 63.5 0)
			(effects
				(font
					(size 1.27 1.27)
				)
				(hide yes)
			)
		)
		(property "Value" "GND"
			(at 179.832 58.674 0)
			(effects
				(font
					(size 1.27 1.27)
				)
			)
		)
		(property "Footprint" ""
			(at 176.53 57.15 0)
			(effects
				(font
					(size 1.27 1.27)
				)
				(hide yes)
			)
		)
		(property "Datasheet" ""
			(at 176.53 57.15 0)
			(effects
				(font
					(size 1.27 1.27)
				)
				(hide yes)
			)
		)
		(property "Description" "Power symbol creates a global label with name \"GND\" , ground"
			(at 176.53 57.15 0)
			(effects
				(font
					(size 1.27 1.27)
				)
				(hide yes)
			)
		)
		(pin "1"
			(uuid "bd2aada8-1a85-43a7-b2c3-b45fb9da9922")
		)
		(instances
			(project "M1"
				(path "/08fe1d43-60d2-463e-995e-fbcce27e340c"
					(reference "#PWR07")
					(unit 1)
				)
			)
		)
	)
	(symbol
		(lib_name "GND_1")
		(lib_id "power:GND")
		(at 134.62 53.34 0)
		(unit 1)
		(exclude_from_sim no)
		(in_bom yes)
		(on_board yes)
		(dnp no)
		(uuid "f95850ac-7f71-4bca-9b1c-e3b01fa578dc")
		(property "Reference" "#PWR01"
			(at 134.62 59.69 0)
			(effects
				(font
					(size 1.27 1.27)
				)
				(hide yes)
			)
		)
		(property "Value" "GND"
			(at 137.922 54.864 0)
			(effects
				(font
					(size 1.27 1.27)
				)
			)
		)
		(property "Footprint" ""
			(at 134.62 53.34 0)
			(effects
				(font
					(size 1.27 1.27)
				)
				(hide yes)
			)
		)
		(property "Datasheet" ""
			(at 134.62 53.34 0)
			(effects
				(font
					(size 1.27 1.27)
				)
				(hide yes)
			)
		)
		(property "Description" "Power symbol creates a global label with name \"GND\" , ground"
			(at 134.62 53.34 0)
			(effects
				(font
					(size 1.27 1.27)
				)
				(hide yes)
			)
		)
		(pin "1"
			(uuid "71b43a17-a5ff-4e56-aa4d-1ee9c543e8a7")
		)
		(instances
			(project "sc"
				(path "/08fe1d43-60d2-463e-995e-fbcce27e340c"
					(reference "#PWR01")
					(unit 1)
				)
			)
		)
	)
	(symbol
		(lib_name "GND_1")
		(lib_id "power:GND")
		(at 212.09 105.41 0)
		(unit 1)
		(exclude_from_sim no)
		(in_bom yes)
		(on_board yes)
		(dnp no)
		(uuid "fcec7625-124f-4ca0-b122-872bae126923")
		(property "Reference" "#PWR02"
			(at 212.09 111.76 0)
			(effects
				(font
					(size 1.27 1.27)
				)
				(hide yes)
			)
		)
		(property "Value" "GND"
			(at 208.788 105.664 0)
			(effects
				(font
					(size 1.27 1.27)
				)
			)
		)
		(property "Footprint" ""
			(at 212.09 105.41 0)
			(effects
				(font
					(size 1.27 1.27)
				)
				(hide yes)
			)
		)
		(property "Datasheet" ""
			(at 212.09 105.41 0)
			(effects
				(font
					(size 1.27 1.27)
				)
				(hide yes)
			)
		)
		(property "Description" "Power symbol creates a global label with name \"GND\" , ground"
			(at 212.09 105.41 0)
			(effects
				(font
					(size 1.27 1.27)
				)
				(hide yes)
			)
		)
		(pin "1"
			(uuid "8c2ed725-0631-4ca9-9cdf-bbacd5003469")
		)
		(instances
			(project "sc"
				(path "/08fe1d43-60d2-463e-995e-fbcce27e340c"
					(reference "#PWR02")
					(unit 1)
				)
			)
		)
	)
	(sheet_instances
		(path "/"
			(page "1")
		)
	)
)
